ID,VNTR_0580,VNTR_2996,VNTR_0802,VNTR_0960,VNTR_1644,VNTR_3192,VNTR_0424,VNTR_0577,VNTR_2165,VNTR_2401,VNTR_3690,VNTR_4156,VNTR_2163b,VNTR_1955,VNTR_4052,VNTR_0154,VNTR_2531,VNTR_4348,VNTR_2059,VNTR_2687,VNTR_3007,VNTR_2347,VNTR_2461,VNTR_3171,spoligo1,spoligo2,spoligo3,spoligo4,spoligo5,spoligo6,spoligo7,spoligo8,spoligo9,spoligo10,spoligo11,spoligo12,spoligo13,spoligo14,spoligo15,spoligo16,spoligo17,spoligo18,spoligo19,spoligo20,spoligo21,spoligo22,spoligo23,spoligo24,spoligo25,spoligo26,spoligo27,spoligo28,spoligo29,spoligo30,spoligo31,spoligo32,spoligo33,spoligo34,spoligo35,spoligo36,spoligo37,spoligo38,spoligo39,spoligo40,spoligo41,spoligo42,spoligo43
NLA000400001,2,5,3,5,3,3,2,3,3,4,3,3,7,3,7,2,3,2,2,1,3,2,2,3,1,1,1,1,1,1,1,1,1,1,1,1,1,1,1,1,1,1,1,1,1,1,1,1,1,0,0,0,0,0,0,1,0,0,0,0,1,1,1,1,1,1,1
NLA000400002,2,4,1,3,2,3,4,4,2,1,2,2,4,3,8,2,6,2,2,1,3,4,1,6,1,1,1,1,1,1,1,1,1,1,1,1,1,1,1,1,1,1,1,1,0,0,0,0,1,1,1,1,1,1,1,1,0,0,0,0,1,1,1,1,1,1,1
NLA000400004,2,5,3,5,4,5,3,2,2,2,3,2,2,3,8,2,5,3,2,1,3,4,3,3,1,1,1,0,0,0,0,1,1,1,1,1,1,1,1,1,1,1,1,1,1,1,0,0,0,0,0,0,0,0,0,0,0,0,1,1,1,0,1,1,1,1,1
NLA000400005,2,6,3,3,3,3,2,3,3,4,3,3,5,4,8,2,5,2,2,1,3,4,2,3,1,1,1,1,1,1,1,1,1,1,1,1,1,1,1,1,1,1,1,1,0,0,0,0,1,1,1,1,1,1,1,1,0,0,0,0,1,0,0,1,1,1,1
NLA000400010,2,5,5,4,3,2,3,2,2,1,2,2,2,3,6,1,5,2,2,1,3,4,2,3,1,1,1,1,1,1,1,1,1,1,1,1,1,1,0,0,0,0,0,0,0,0,0,0,1,1,1,1,1,1,1,1,0,0,0,0,1,1,1,1,1,1,1
NLA000400011,2,6,3,8,3,4,2,3,3,4,3,3,2,7,6,2,5,2,2,1,3,4,2,3,1,1,1,1,1,1,1,1,1,1,1,1,1,1,1,1,1,1,1,1,1,1,1,1,1,1,1,1,1,1,1,1,0,0,0,0,1,1,1,1,1,1,1
NLA000400016,2,7,3,3,3,5,4,4,3,2,3,2,5,5,8,2,5,3,2,1,3,4,2,3,0,0,0,0,0,0,0,0,0,0,0,0,0,0,0,0,0,0,0,0,0,0,0,0,0,0,0,0,0,0,0,0,0,0,1,1,1,1,1,1,1,1,1
NLA000400018,3,5,3,8,3,3,2,3,3,4,3,3,5,3,6,2,3,2,2,1,3,2,2,3,1,1,1,1,1,1,1,1,1,1,1,1,1,1,1,1,1,1,1,1,1,1,1,1,1,0,0,0,0,0,0,1,0,0,0,0,1,1,1,1,1,1,1
NLA000400020,5,2,2,4,3,4,1,4,4,2,2,1,7,7,6,2,6,3,2,2,3,3,7,3,0,0,0,0,0,0,0,0,0,0,0,0,0,0,0,0,0,0,0,0,0,0,0,0,0,0,0,0,0,0,0,0,0,0,0,0,0,0,0,0,0,0,0
NLA000400021,2,5,3,5,3,3,2,3,3,4,3,3,4,3,5,2,5,2,2,1,3,4,2,3,1,1,1,1,1,1,1,1,1,1,1,1,1,0,0,0,0,1,1,1,1,1,1,1,1,1,1,1,1,1,0,1,0,0,0,0,1,1,1,1,1,1,1
NLA000400022,2,5,3,6,3,3,2,3,3,4,3,3,6,3,6,1,5,2,2,1,3,4,2,3,1,1,1,1,1,1,1,1,1,1,1,1,1,1,1,1,1,1,1,1,1,1,1,1,1,1,1,1,1,1,0,1,0,0,0,0,1,1,1,1,1,1,1
NLA000400024,2,4,5,3,3,2,2,2,3,2,3,0,2,2,5,3,5,2,2,1,3,4,2,3,1,1,1,1,1,1,1,1,1,1,0,0,0,0,0,0,0,1,1,1,1,1,0,1,1,1,1,1,1,1,1,1,0,0,0,0,1,1,1,0,1,1,1
NLA000400026,2,5,3,3,2,5,4,4,4,4,3,2,6,5,8,2,5,3,2,1,1,4,2,3,0,0,0,0,0,0,0,0,0,0,0,0,0,0,0,0,0,0,0,0,0,0,0,0,0,0,0,0,0,0,0,0,0,0,1,1,1,1,1,1,1,1,1
NLA000400028,5,2,3,4,3,4,2,2,9,2,5,1,8,11,5,2,6,1,2,2,3,3,4,3,1,1,1,1,1,1,1,1,1,1,1,1,1,1,1,1,1,1,1,1,1,1,1,1,1,1,1,1,0,0,0,0,1,0,1,1,1,1,1,0,1,1,1
NLA000400029,2,5,3,5,3,3,2,3,3,4,3,3,2,3,5,2,5,2,2,1,3,4,2,2,1,1,1,1,1,1,1,1,0,0,0,0,0,0,1,1,1,1,1,1,1,1,1,1,1,0,0,0,0,0,0,1,0,0,0,0,1,1,1,1,1,1,1
NLA000400031,2,5,3,5,3,3,2,3,3,4,3,3,9,2,5,2,5,2,2,1,4,4,2,3,1,1,1,1,1,1,1,1,0,0,0,0,0,0,1,1,1,1,1,1,1,1,1,1,1,0,0,0,0,0,0,1,0,0,0,0,1,1,1,1,1,1,1
NLA000400033,2,5,4,3,3,3,2,4,3,2,3,2,2,2,1,2,6,2,2,1,3,4,2,3,1,1,1,1,1,1,1,0,1,1,1,1,1,1,1,1,1,1,1,1,1,1,0,1,1,1,1,1,1,1,1,1,0,0,0,0,1,1,1,1,1,1,1
NLA000400036,2,4,3,2,3,3,1,4,3,2,3,2,2,3,7,2,5,2,2,1,3,4,1,3,1,1,1,1,1,1,1,1,1,1,1,1,1,1,1,1,1,1,1,1,1,1,1,1,0,0,0,0,0,0,0,1,0,0,0,0,1,1,1,1,0,1,1
NLA000400040,2,5,2,2,3,3,3,4,3,2,3,2,2,5,7,2,5,2,2,1,3,4,1,2,1,0,1,1,1,1,1,1,1,1,1,1,1,1,1,1,1,1,1,1,1,1,1,1,1,1,1,1,0,0,0,1,0,0,0,0,1,1,1,1,1,1,1
