,id;vntr_0154;vntr_0424;vntr_0577;vntr_0580;vntr_0802;vntr_0960;vntr_1644;vntr_1955;vntr_2059;vntr_2163b;vntr_2165;vntr_2347;vntr_2401;vntr_2461;vntr_2531;vntr_2687;vntr_2996;vntr_3007;vntr_3171;vntr_3192;vntr_3690;vntr_4052;vntr_4156;vntr_4348;Lineage
0,1;DRD11;2;4;4;2;3;3;3;5;2;6;4;4;4;2;5;1;7;3;3;5;3;8;2;3;Beijing
1,2;DRD113;2;4;4;2;3;3;3;3;2;6;4;4;4;1;5;1;7;3;3;5;3;8;2;3;Beijing
2,3;DRD122;2;4;4;2;3;3;3;5;2;6;4;4;4;2;5;1;5;3;3;5;3;8;2;3;Beijing
3,4;DRD125;2;4;4;2;3;3;3;5;2;6;4;4;4;2;5;1;5;3;3;5;3;8;2;3;Beijing
4,5;DRD139;2;4;4;2;3;3;3;6;2;3;4;4;4;2;5;1;7;3;3;5;3;7;2;3;Beijing
5,6;DRD172;2;4;4;2;3;2;3;5;2;6;4;4;4;2;5;1;5;3;3;5;3;8;2;3;Beijing
6,7;DRD178;2;4;4;2;3;3;3;5;2;3;4;4;4;2;5;1;5;3;3;5;3;8;2;3;Beijing
7,8;DRD193;2;4;4;2;3;2;3;5;1;6;3;4;4;2;5;1;5;3;3;5;3;7;2;3;Beijing
8,9;DRD223;2;4;4;2;3;2;3;5;2;6;3;4;4;2;5;1;5;3;3;5;3;8;2;3;Beijing
9,10;DRD276;2;4;4;2;3;3;3;6;2;3;4;4;4;1;5;1;5;3;3;5;3;8;2;3;Beijing
10,11;DRD295;2;4;4;2;3;2;3;5;2;3;3;4;4;2;5;1;7;2;3;5;3;7;2;3;Beijing
11,12;DRD297;2;4;4;2;3;2;3;5;2;3;3;4;4;2;5;1;7;3;3;5;3;7;2;3;Beijing
12,13;DRD3;2;4;4;2;3;3;3;5;2;6;4;4;4;2;5;1;5;3;3;5;3;8;2;3;Beijing
13,14;DRD309;2;4;4;2;3;3;3;6;2;6;4;4;4;2;5;1;7;3;3;5;3;7;2;3;Beijing
14,15;DRD33;2;4;4;2;3;3;4;6;2;3;4;4;4;2;5;1;5;3;3;5;3;8;2;3;Beijing
15,16;DRD334;2;4;4;2;3;2;3;6;2;3;4;4;4;2;5;1;5;3;3;5;3;8;2;3;Beijing
16,17;DRD418;2;4;4;2;3;3;3;5;2;6;4;4;4;2;5;1;7;3;3;5;3;7;2;3;Beijing
17,18;DRD421;2;4;4;2;3;3;3;5;2;3;4;4;4;2;5;1;5;3;3;5;3;8;2;3;Beijing
18,19;DRD427;2;4;4;2;3;3;3;5;2;3;4;4;4;2;5;1;5;3;3;5;3;8;2;3;Beijing
19,20;DRD459;2;4;4;2;3;3;3;6;2;6;4;4;4;2;5;1;4;3;3;5;3;8;2;3;Beijing
20,21;DRD461;2;4;4;2;3;2;3;5;2;3;3;4;4;2;5;1;7;3;3;5;3;8;2;3;Beijing
21,22;DRD494;2;4;4;2;3;3;3;5;2;3;4;4;4;2;5;1;5;3;3;5;3;7;2;3;Beijing
22,23;DRD497;2;4;4;2;3;3;3;5;2;6;4;4;4;2;5;1;7;3;3;5;3;8;2;3;Beijing
23,24;DRD506;2;4;4;2;3;3;3;5;2;3;4;4;4;1;5;1;5;3;3;5;3;7;2;3;Beijing
24,25;DRD515;2;4;4;2;3;3;3;5;2;3;4;4;4;2;5;1;5;3;3;5;3;8;2;3;Beijing
25,26;DRD520;2;4;4;2;3;2;2;4;2;3;3;4;4;2;5;1;5;3;3;5;3;7;2;3;Beijing
26,27;DRD527;2;3;3;2;3;3;2;5;2;3;4;4;4;2;5;1;5;3;3;5;3;7;2;3;Beijing
27,28;DRD544;2;4;4;2;3;3;3;5;2;6;4;4;4;2;5;1;5;3;3;5;3;8;2;3;Beijing
28,29;DRD551;2;4;4;2;3;2;3;5;2;3;3;4;4;2;5;1;5;3;3;5;3;7;2;3;Beijing
29,30;DRD585;2;2;4;2;3;3;3;6;2;3;4;4;4;2;5;1;5;3;3;5;3;8;2;3;Beijing
30,31;DRD637;2;4;4;2;3;3;3;5;2;6;4;4;4;2;5;1;5;3;3;5;3;8;2;3;Beijing
31,32;DRD638;2;4;4;2;3;3;3;5;2;6;4;4;4;2;5;1;7;3;3;5;3;8;2;3;Beijing
32,33;DRD674;2;4;4;2;3;3;3;5;2;3;4;4;4;2;5;1;7;3;3;2;3;8;2;3;Beijing
33,34;DRD700;2;4;4;2;3;3;3;5;2;6;4;4;4;2;5;1;5;3;3;5;3;8;2;3;Beijing
34,35;DRD701;2;4;4;2;3;3;3;6;2;6;4;4;4;2;5;1;5;3;3;4;3;8;2;3;Beijing
35,36;DRD785;2;4;4;2;3;1;3;5;2;3;3;4;4;2;5;1;7;2;3;5;3;7;2;3;Beijing
36,37;DRD87;2;4;4;2;3;2;3;5;2;3;4;4;4;2;5;1;5;3;3;5;3;7;2;3;Beijing
37,38;DRD895;2;4;4;2;3;2;3;5;2;3;3;4;3;2;5;1;7;2;3;5;3;7;2;3;Beijing
38,39;DRD105;2;2;4;2;3;4;3;3;1;6;3;4;2;2;5;1;5;3;3;3;7;5;2;2;Cameroon
39,40;DRD228;2;2;4;2;3;4;3;3;1;5;3;4;2;2;5;1;5;3;3;3;7;5;2;2;Cameroon
40,41;DRD249;2;2;4;2;3;4;3;3;1;4;3;4;2;2;5;1;5;3;3;3;7;5;2;2;Cameroon
41,42;DRD65;2;2;4;2;3;4;2;3;1;6;3;4;2;2;5;1;5;3;3;3;7;5;2;2;Cameroon
42,43;DRD111;2;3;2;2;3;6;2;4;2;7;4;4;2;2;5;1;7;3;3;5;3;8;3;2;Delhi/CAS
43,44;DRD116;2;3;2;2;3;6;2;4;2;2;4;4;2;2;5;1;7;3;3;5;3;5;4;3;Delhi/CAS
44,45;DRD120;2;5;2;2;3;5;2;4;2;2;4;4;2;2;6;1;7;3;3;4;2;7;3;2;Delhi/CAS
45,46;DRD123;2;3;2;2;3;6;2;4;2;2;3;4;2;2;5;1;7;3;3;5;3;2;2;3;Delhi/CAS
46,47;DRD129;2;3;2;2;3;6;2;4;2;2;4;4;2;2;5;1;7;3;3;5;3;5;4;3;Delhi/CAS
47,48;DRD130;2;3;2;2;3;6;2;4;2;2;4;4;2;2;5;1;7;3;3;5;3;2;2;3;Delhi/CAS
48,49;DRD132;2;3;2;2;3;6;2;4;2;2;4;4;2;2;5;1;7;3;3;5;3;2;4;3;Delhi/CAS
49,50;DRD140;2;3;2;2;3;6;2;4;2;2;4;4;2;2;5;1;7;3;3;5;3;5;4;3;Delhi/CAS
50,51;DRD149;2;3;2;2;3;5;2;4;2;7;3;4;2;2;5;1;4;3;3;5;3;8;3;2;Delhi/CAS
51,52;DRD15;2;4;2;2;3;4;4;5;2;2;4;4;2;2;5;1;7;3;3;4;3;2;4;2;Delhi/CAS
52,53;DRD165;2;3;2;2;3;6;2;4;2;2;4;4;2;2;5;1;7;3;3;5;3;2;2;3;Delhi/CAS
53,54;DRD166;2;3;2;2;3;6;2;4;2;2;4;4;2;2;5;1;7;3;3;5;3;5;4;3;Delhi/CAS
54,55;DRD167;2;4;2;2;3;7;4;4;2;2;4;4;2;2;5;1;6;3;3;5;3;5;4;3;Delhi/CAS
55,56;DRD169;2;3;2;2;3;6;2;4;2;7;4;4;2;2;5;1;7;3;3;5;3;8;3;2;Delhi/CAS
56,57;DRD17;2;3;2;2;3;6;2;4;2;2;4;4;2;1;5;1;7;3;3;5;3;2;4;3;Delhi/CAS
57,58;DRD171;2;3;2;2;3;6;2;4;2;2;4;4;2;2;5;1;7;3;3;5;3;2;2;3;Delhi/CAS
58,59;DRD174;2;3;2;2;3;6;2;4;2;2;4;4;2;2;5;1;7;3;3;5;3;2;2;3;Delhi/CAS
59,60;DRD176;2;4;2;2;3;5;4;4;2;2;4;4;2;2;4;1;8;3;3;4;3;8;4;3;Delhi/CAS
60,61;DRD177;2;4;2;2;3;6;4;4;2;2;4;4;2;2;5;1;7;3;3;5;3;8;4;2;Delhi/CAS
61,62;DRD179;2;3;2;2;2;6;4;4;2;3;4;4;1;2;5;1;7;3;3;5;3;2;2;2;Delhi/CAS
62,63;DRD181;2;3;2;2;3;6;2;4;2;2;4;4;2;2;5;1;7;3;3;5;3;2;4;3;Delhi/CAS
63,64;DRD186;2;3;2;2;3;6;2;4;2;7;4;4;2;2;4;1;7;3;3;5;3;7;3;2;Delhi/CAS
64,65;DRD19;2;4;2;2;3;5;4;4;2;2;4;4;2;2;4;1;8;3;3;4;3;8;4;3;Delhi/CAS
65,66;DRD192;2;3;2;2;3;6;4;4;2;2;4;4;2;2;5;1;5;3;3;5;3;6;4;3;Delhi/CAS
66,67;DRD197;2;3;2;2;3;6;2;4;2;2;4;4;2;1;5;1;7;3;3;5;3;2;2;3;Delhi/CAS
67,68;DRD199;2;3;2;2;3;5;2;4;2;7;4;4;2;2;5;1;7;3;3;5;3;8;3;2;Delhi/CAS
68,69;DRD2;2;4;2;2;3;5;4;4;2;2;4;4;2;2;4;1;8;3;3;4;3;8;4;3;Delhi/CAS
69,70;DRD20;2;3;2;2;3;4;4;4;2;2;4;4;2;2;5;1;7;3;3;4;3;2;4;2;Delhi/CAS
70,71;DRD201;2;3;2;2;3;6;2;4;2;7;4;4;2;2;4;1;4;3;3;5;3;8;3;2;Delhi/CAS
71,72;DRD204;2;3;2;2;3;6;4;4;2;2;4;4;2;2;5;1;5;3;3;5;2;6;4;3;Delhi/CAS
72,73;DRD206;2;3;2;2;3;5;4;4;2;2;4;4;2;2;5;1;5;3;3;5;4;7;4;3;Delhi/CAS
73,74;DRD209;2;4;2;2;3;6;4;4;2;2;4;4;2;2;5;1;7;3;3;5;3;8;4;2;Delhi/CAS
74,75;DRD211;2;4;2;2;3;5;4;4;2;2;4;4;2;2;4;1;8;3;3;4;3;8;4;3;Delhi/CAS
75,76;DRD212;2;3;2;2;3;6;2;4;2;7;4;4;2;2;5;1;7;3;3;5;3;7;3;2;Delhi/CAS
76,77;DRD213;2;3;2;2;3;5;2;4;2;7;4;4;2;2;4;1;4;3;3;5;3;8;3;2;Delhi/CAS
77,78;DRD214;2;3;2;2;3;6;2;4;2;7;4;4;2;2;5;1;4;3;3;5;3;8;3;2;Delhi/CAS
78,79;DRD215;2;3;2;2;3;6;3;4;2;2;4;4;2;2;4;1;7;3;3;5;3;2;2;3;Delhi/CAS
79,80;DRD217;2;3;2;2;3;6;4;4;2;2;4;4;2;2;5;1;5;3;3;5;3;5;4;3;Delhi/CAS
80,81;DRD22;2;4;2;2;3;6;4;4;2;2;4;4;2;2;4;1;8;3;3;4;3;8;4;3;Delhi/CAS
81,82;DRD221;2;3;2;2;3;5;2;4;2;7;4;4;2;2;4;1;7;3;3;5;3;8;3;2;Delhi/CAS
82,83;DRD230;2;4;2;2;3;5;4;4;2;2;4;4;2;2;4;1;8;3;3;4;3;8;4;3;Delhi/CAS
83,84;DRD231;2;4;2;2;3;6;4;4;2;2;4;4;2;2;4;1;7;3;3;3;3;8;4;3;Delhi/CAS
84,85;DRD232;2;4;2;2;3;5;4;4;2;2;3;4;2;2;4;1;8;3;3;4;3;7;4;3;Delhi/CAS
85,86;DRD234;2;4;2;2;3;6;4;4;2;2;4;4;2;2;4;1;8;3;3;4;3;8;4;3;Delhi/CAS
86,87;DRD238;2;3;2;2;3;6;2;4;2;2;4;4;1;2;5;1;7;3;3;5;3;2;2;3;Delhi/CAS
87,88;DRD239;2;4;2;2;3;5;4;4;2;2;4;4;3;2;4;1;8;3;3;3;3;8;4;3;Delhi/CAS
88,89;DRD240;2;3;2;2;3;6;2;4;2;2;4;4;2;2;5;1;7;3;3;5;3;2;2;3;Delhi/CAS
89,90;DRD243;2;2;2;2;3;6;2;4;2;7;4;4;2;2;5;1;3;3;3;5;3;8;3;2;Delhi/CAS
90,91;DRD244;2;4;2;2;3;5;4;4;2;2;3;4;2;2;4;1;7;3;3;4;3;8;4;3;Delhi/CAS
91,92;DRD250;2;3;2;2;3;6;2;4;2;7;4;4;2;2;5;1;7;3;3;5;3;7;3;2;Delhi/CAS
92,93;DRD252;2;3;4;2;3;4;3;4;2;3;3;4;2;2;5;1;7;3;3;5;3;8;4;3;Delhi/CAS
93,94;DRD255;2;4;2;2;3;5;4;4;2;2;4;4;2;2;4;1;8;3;3;3;3;8;4;3;Delhi/CAS
94,95;DRD263;2;4;2;2;3;5;4;4;2;2;4;4;2;2;4;1;7;3;3;4;3;8;4;3;Delhi/CAS
95,96;DRD267;2;3;2;2;3;6;3;4;2;2;4;4;2;2;5;1;7;3;3;5;3;2;2;3;Delhi/CAS
96,97;DRD281;2;3;2;2;3;5;4;4;2;2;3;4;2;2;4;1;8;3;3;4;3;7;4;3;Delhi/CAS
97,98;DRD284;2;3;2;2;3;5;2;4;2;7;4;4;2;2;6;1;3;3;3;5;3;8;3;2;Delhi/CAS
98,99;DRD288;2;4;2;2;3;6;4;4;2;2;4;4;2;2;4;1;8;3;3;4;3;8;4;3;Delhi/CAS
99,100;DRD296;2;3;2;2;3;6;2;4;2;7;4;4;2;2;5;1;7;3;3;5;3;7;2;2;Delhi/CAS
100,101;DRD299;2;5;2;2;3;3;4;4;2;2;4;4;2;2;5;1;7;3;1;5;3;8;4;2;Delhi/CAS
101,102;DRD304;2;3;2;2;3;5;4;4;2;2;4;4;2;2;5;1;7;3;3;5;4;1;4;3;Delhi/CAS
102,103;DRD314;2;5;4;2;3;5;4;4;2;6;4;4;2;2;5;1;7;3;3;5;3;8;4;3;Delhi/CAS
103,104;DRD316;2;3;2;2;3;5;2;4;2;7;4;4;2;2;5;1;7;3;3;5;3;8;3;2;Delhi/CAS
104,105;DRD317;2;3;2;2;3;6;2;4;2;7;4;4;2;2;5;1;7;3;3;5;3;7;3;2;Delhi/CAS
105,106;DRD318;2;3;3;2;3;6;3;4;2;2;4;4;2;2;4;1;7;3;3;5;4;8;2;3;Delhi/CAS
106,107;DRD321;2;4;3;2;3;6;4;4;2;5;3;4;4;2;5;1;7;3;3;5;4;7;2;2;Delhi/CAS
107,108;DRD323;2;3;2;2;3;6;2;4;2;7;4;4;2;2;6;1;3;3;3;5;3;8;3;2;Delhi/CAS
108,109;DRD325;2;4;2;2;3;6;3;6;2;2;4;4;2;2;5;1;6;3;4;5;3;6;4;3;Delhi/CAS
109,110;DRD326;2;3;2;2;3;5;2;4;2;7;4;4;2;2;5;1;7;3;3;5;3;8;3;2;Delhi/CAS
110,111;DRD331;2;3;2;2;3;6;2;4;2;2;4;4;2;2;5;1;7;3;3;5;3;2;4;3;Delhi/CAS
111,112;DRD333;2;3;2;2;3;6;2;4;2;7;4;4;2;2;5;1;7;3;3;5;3;8;3;2;Delhi/CAS
112,113;DRD338;2;3;2;2;3;6;2;4;2;7;4;4;2;2;6;1;3;3;3;5;3;8;2;2;Delhi/CAS
113,114;DRD344;2;3;2;2;3;5;2;4;2;7;4;4;2;2;5;1;7;3;3;5;3;7;3;2;Delhi/CAS
114,115;DRD348;2;3;2;2;3;6;2;4;2;2;4;4;2;2;5;1;7;3;3;5;3;2;4;3;Delhi/CAS
115,116;DRD358;2;3;2;2;3;6;2;4;2;7;4;4;2;2;5;1;4;3;3;5;1;8;3;2;Delhi/CAS
116,117;DRD361;2;3;2;2;3;6;2;4;2;7;4;4;2;2;5;1;5;3;3;5;3;8;3;2;Delhi/CAS
117,118;DRD37;2;4;2;2;3;4;4;4;2;2;4;4;2;2;5;1;7;3;3;5;4;6;4;3;Delhi/CAS
118,119;DRD370;2;3;2;2;3;6;2;4;2;2;4;4;2;2;5;1;7;3;3;5;3;2;4;3;Delhi/CAS
119,120;DRD373;2;3;2;2;3;5;2;4;2;7;4;4;2;2;6;1;7;3;3;5;3;8;3;2;Delhi/CAS
120,121;DRD378;2;3;2;2;3;6;2;4;2;2;4;4;2;2;5;1;7;3;3;5;3;2;2;3;Delhi/CAS
121,122;DRD38;2;3;2;2;3;6;2;4;2;2;4;4;2;2;5;1;7;3;3;5;3;2;4;3;Delhi/CAS
122,123;DRD385;2;3;2;2;3;6;2;4;2;7;4;4;2;2;5;1;4;3;3;5;3;7;3;2;Delhi/CAS
123,124;DRD389;2;3;2;2;3;6;2;4;2;2;4;4;2;2;5;1;7;3;3;5;3;2;4;3;Delhi/CAS
124,125;DRD39;2;4;2;1;3;7;4;4;2;2;4;4;2;2;5;1;7;3;3;5;3;5;4;3;Delhi/CAS
125,126;DRD394;2;3;2;2;3;6;2;4;2;7;4;4;2;2;5;1;3;3;3;5;3;8;3;2;Delhi/CAS
126,127;DRD402;2;2;2;2;3;6;2;4;2;2;4;4;2;2;5;1;7;3;3;5;3;2;2;3;Delhi/CAS
127,128;DRD404;2;3;2;2;3;5;2;4;2;7;4;4;2;2;5;1;7;3;3;5;3;8;3;2;Delhi/CAS
128,129;DRD407;2;4;1;2;3;5;4;4;2;2;4;4;2;2;4;1;8;3;3;3;3;8;4;3;Delhi/CAS
129,130;DRD408;2;3;4;2;3;3;2;4;2;6;4;4;2;2;5;1;4;3;3;5;3;8;3;3;Delhi/CAS
130,131;DRD410;2;3;2;2;3;6;2;4;2;7;4;4;2;2;6;1;7;3;3;5;3;7;2;2;Delhi/CAS
131,132;DRD413;2;4;2;2;3;5;4;4;2;2;4;4;2;2;4;1;8;3;3;4;3;8;4;3;Delhi/CAS
132,133;DRD437;2;3;2;2;3;6;2;3;2;2;4;4;2;1;5;1;7;3;3;5;3;2;2;3;Delhi/CAS
133,134;DRD438;2;3;2;2;3;6;2;4;2;7;4;4;2;2;5;1;7;3;3;5;1;8;3;2;Delhi/CAS
134,135;DRD442;2;3;2;2;3;6;3;4;2;2;4;4;2;2;5;1;7;3;3;5;3;2;2;3;Delhi/CAS
135,136;DRD444;2;3;2;2;3;5;2;3;2;2;4;4;2;2;5;1;7;3;3;5;3;2;2;3;Delhi/CAS
136,137;DRD450;2;4;2;2;3;6;4;4;2;2;4;4;2;2;4;1;7;3;3;4;3;8;4;3;Delhi/CAS
137,138;DRD451;2;3;2;2;3;6;2;4;2;2;4;4;2;1;5;1;7;3;3;4;3;5;2;3;Delhi/CAS
138,139;DRD457;2;5;2;2;3;5;2;4;2;2;4;4;2;2;6;1;7;3;3;5;2;8;3;2;Delhi/CAS
139,140;DRD46;2;3;2;2;3;5;2;4;2;2;4;4;2;2;5;1;7;3;3;5;3;2;2;3;Delhi/CAS
140,141;DRD466;2;3;2;2;3;5;2;4;2;7;4;4;2;2;5;1;3;3;3;5;3;8;3;2;Delhi/CAS
141,142;DRD471;2;3;2;2;3;6;2;4;2;7;4;4;2;2;5;1;7;3;3;5;3;7;3;2;Delhi/CAS
142,143;DRD478;2;3;2;2;4;5;2;4;2;2;4;4;2;2;5;1;7;3;3;4;3;5;2;3;Delhi/CAS
143,144;DRD479;2;4;2;2;3;6;4;4;2;2;4;4;4;2;6;1;7;3;3;4;4;4;4;2;Delhi/CAS
144,145;DRD48;2;3;2;2;3;6;2;3;2;2;4;4;2;2;5;1;7;3;3;5;3;2;2;3;Delhi/CAS
145,146;DRD486;2;3;2;2;3;6;2;4;2;2;4;4;2;2;5;1;7;3;3;5;3;2;2;3;Delhi/CAS
146,147;DRD489;2;3;2;2;3;5;2;4;2;7;4;4;2;2;5;1;4;3;3;5;3;8;3;2;Delhi/CAS
147,148;DRD490;2;3;2;2;4;6;2;4;2;2;4;4;2;2;5;1;7;3;3;5;3;2;4;3;Delhi/CAS
148,149;DRD491;2;5;2;2;3;5;4;4;2;6;4;4;2;2;5;1;4;3;3;5;3;7;4;3;Delhi/CAS
149,150;DRD496;2;3;2;2;3;6;2;4;2;2;4;4;2;1;5;1;7;2;3;5;3;5;2;3;Delhi/CAS
150,151;DRD50;2;4;2;2;3;6;4;4;2;2;3;4;2;2;4;1;7;3;3;4;3;8;4;3;Delhi/CAS
151,152;DRD501;2;3;2;2;3;6;2;4;2;2;4;4;2;1;5;1;7;3;3;5;3;2;2;2;Delhi/CAS
152,153;DRD503;2;3;2;2;4;6;2;4;2;2;4;4;2;2;5;1;7;3;3;5;3;2;4;3;Delhi/CAS
153,154;DRD514;2;4;2;2;3;6;4;4;2;2;4;4;2;1;4;2;8;3;3;3;3;7;4;3;Delhi/CAS
154,155;DRD521;2;4;2;2;3;5;4;4;2;2;3;4;2;2;4;1;8;3;3;4;3;8;4;3;Delhi/CAS
155,156;DRD522;2;5;2;2;3;3;3;4;2;6;4;4;1;2;5;1;4;3;3;5;3;8;4;3;Delhi/CAS
156,157;DRD524;2;3;2;2;3;6;2;4;2;2;4;4;2;2;5;1;7;3;3;3;3;2;2;3;Delhi/CAS
157,158;DRD532;2;5;3;2;3;3;3;4;2;6;4;4;1;1;5;1;5;3;3;5;3;8;4;3;Delhi/CAS
158,159;DRD545;2;4;2;2;3;4;3;4;2;2;4;4;2;2;6;1;4;3;3;3;3;7;2;2;Delhi/CAS
159,160;DRD552;2;3;2;2;3;6;2;4;2;2;4;4;2;2;5;1;7;2;3;5;3;5;2;3;Delhi/CAS
160,161;DRD566;2;3;2;2;3;6;2;4;2;2;4;4;2;1;4;1;7;3;3;5;3;2;2;2;Delhi/CAS
161,162;DRD577;2;4;2;2;3;5;4;4;2;2;4;4;2;2;4;1;8;3;3;3;3;7;4;3;Delhi/CAS
162,163;DRD578;2;5;2;2;3;5;2;4;2;2;4;4;2;2;6;1;7;3;3;5;2;8;3;2;Delhi/CAS
163,164;DRD590;2;3;2;2;3;6;2;4;2;1;4;4;2;2;5;1;7;3;3;5;3;2;2;3;Delhi/CAS
164,165;DRD592;2;5;2;2;3;5;4;4;2;6;4;4;2;2;5;1;7;3;3;5;3;8;4;3;Delhi/CAS
165,166;DRD593;2;5;2;2;3;5;2;4;2;2;4;4;2;2;6;1;7;3;3;5;2;7;3;2;Delhi/CAS
166,167;DRD597;2;4;2;2;5;6;4;4;2;2;4;4;2;2;5;1;5;3;3;4;3;7;5;2;Delhi/CAS
167,168;DRD600;2;5;2;2;3;5;4;2;2;4;4;2;2;5;1;7;3;3;4;3;1;2;3;Delhi/CAS
168,169;DRD605;2;3;2;2;3;5;2;4;2;7;4;4;1;2;5;1;6;3;3;5;3;8;3;2;Delhi/CAS
169,170;DRD608;2;3;2;2;3;6;2;4;2;7;4;4;2;2;6;1;7;3;3;5;3;7;3;2;Delhi/CAS
170,171;DRD615;2;3;2;2;3;6;2;4;2;7;4;4;1;2;5;1;7;3;3;5;3;8;3;2;Delhi/CAS
171,172;DRD627;2;3;2;2;3;6;2;4;2;2;4;4;2;2;5;1;7;3;3;4;3;2;3;3;Delhi/CAS
172,173;DRD632;2;2;2;2;3;5;2;4;2;7;4;4;2;2;6;1;7;3;3;5;3;8;3;2;Delhi/CAS
173,174;DRD640;2;3;2;2;3;6;2;4;2;7;4;4;2;2;5;1;7;3;3;5;3;7;3;2;Delhi/CAS
174,175;DRD641;2;3;2;2;4;5;2;4;2;7;4;4;2;2;5;1;7;3;3;5;3;8;3;2;Delhi/CAS
175,176;DRD645;2;3;2;2;3;6;2;4;2;2;4;4;2;2;5;1;7;3;3;5;3;5;4;3;Delhi/CAS
176,177;DRD648;2;3;2;2;3;5;2;4;2;7;4;4;2;2;5;1;7;3;3;5;3;7;3;2;Delhi/CAS
177,178;DRD651;2;5;2;2;3;5;2;4;2;2;4;4;2;2;6;1;7;3;3;5;2;8;3;2;Delhi/CAS
178,179;DRD655;2;3;2;2;3;6;2;4;2;7;4;4;2;2;5;1;7;3;3;5;3;8;3;2;Delhi/CAS
179,180;DRD661;2;4;2;2;3;5;4;4;2;2;4;4;2;2;4;1;8;3;3;4;3;8;4;3;Delhi/CAS
180,181;DRD666;2;4;2;2;3;5;4;4;2;2;4;4;2;2;4;1;8;3;3;4;3;8;4;3;Delhi/CAS
181,182;DRD67;2;3;2;2;3;6;2;4;2;2;4;4;2;2;5;1;7;3;3;5;3;2;4;3;Delhi/CAS
182,183;DRD671;2;3;2;2;3;5;2;4;2;7;4;4;1;2;5;1;7;3;3;5;3;8;3;2;Delhi/CAS
183,184;DRD673;2;3;2;2;4;6;2;4;2;7;4;4;2;2;5;1;7;3;3;5;3;7;3;2;Delhi/CAS
184,185;DRD679;2;3;2;2;3;6;2;4;2;2;4;4;2;2;5;1;7;3;3;4;2;2;2;3;Delhi/CAS
185,186;DRD684;2;3;2;2;4;5;2;4;2;7;4;4;2;2;6;1;7;3;3;5;3;8;3;2;Delhi/CAS
186,187;DRD691;2;3;2;2;3;6;2;4;2;7;4;4;1;2;5;1;7;3;3;5;3;7;3;2;Delhi/CAS
187,188;DRD694;2;3;2;2;3;5;2;4;2;7;4;4;3;2;5;1;7;3;3;5;3;7;3;2;Delhi/CAS
188,189;DRD695;2;3;2;2;3;6;2;4;2;7;4;4;2;2;5;1;7;3;3;5;3;8;3;2;Delhi/CAS
189,190;DRD698;2;3;2;2;3;6;2;4;2;2;4;4;2;2;5;1;7;3;3;5;3;2;4;3;Delhi/CAS
190,191;DRD7;2;3;2;2;3;6;2;3;2;2;4;4;2;2;5;1;7;3;3;5;3;5;2;3;Delhi/CAS
191,192;DRD73;2;4;2;2;3;5;4;4;2;2;4;4;2;2;4;1;8;3;3;4;3;8;4;3;Delhi/CAS
192,193;DRD75;2;3;2;2;3;6;2;4;2;2;4;4;2;2;5;1;7;2;3;5;3;2;2;3;Delhi/CAS
193,194;DRD81;2;5;2;2;3;5;2;4;2;2;4;4;2;2;6;1;7;3;3;5;2;8;3;2;Delhi/CAS
194,195;DRD83;2;3;2;2;3;6;2;4;2;2;4;4;2;2;5;1;7;3;3;5;3;5;4;3;Delhi/CAS
195,196;DRD9;2;3;2;2;3;6;2;3;2;2;4;4;2;2;5;1;7;2;3;5;3;2;2;3;Delhi/CAS
196,197;DRD1;2;2;4;5;3;4;2;5;2;2;7;3;2;5;5;2;2;3;3;4;4;5;1;3;EAI
197,198;DRD106;2;1;4;5;2;4;9;9;2;8;4;3;2;6;6;2;2;3;3;4;2;7;1;3;EAI
198,199;DRD107;2;1;4;5;2;4;9;a;2;9;4;3;2;6;6;2;2;3;3;4;2;7;1;3;EAI
199,200;DRD109;2;2;4;5;3;4;3;5;2;3;4;3;1;5;6;2;2;3;3;6;4;5;1;2;EAI
200,201;DRD117;2;2;4;5;4;4;3;6;2;3;6;3;1;1;6;2;2;3;3;4;4;6;1;3;EAI
201,202;DRD118;2;2;4;5;4;4;3;6;2;3;6;3;1;1;4;2;2;3;3;4;4;5;1;3;EAI
202,203;DRD12;2;2;4;5;3;4;3;5;2;2;6;3;1;4;6;2;2;3;3;5;4;6;1;3;EAI
203,204;DRD121;2;2;4;5;3;4;3;5;2;2;7;3;2;6;5;2;2;3;3;4;4;5;1;3;EAI
204,205;DRD126;2;1;4;5;2;4;9;9;2;8;4;3;2;6;6;2;2;3;3;4;2;7;1;3;EAI
205,206;DRD13;2;1;4;5;2;4;9;9;2;9;4;3;2;6;6;2;2;3;3;4;2;7;1;3;EAI
206,207;DRD135;2;2;4;5;3;4;3;5;2;3;8;3;1;3;7;2;2;3;3;6;5;5;1;3;EAI
207,208;DRD138;2;1;4;3;2;4;3;3;2;3;4;3;2;6;6;2;2;3;3;4;2;1;1;3;EAI
208,209;DRD148;2;1;4;5;2;4;3;9;2;9;6;3;2;6;6;2;2;3;3;3;2;7;1;3;EAI
209,210;DRD150;2;2;4;5;3;4;3;5;2;3;4;3;1;3;6;2;2;3;3;6;4;5;1;3;EAI
210,211;DRD151;2;1;4;5;2;4;9;a;2;8;4;3;2;6;6;2;2;3;3;4;2;7;1;3;EAI
211,212;DRD152;2;1;4;5;2;4;3;9;2;9;8;3;2;3;7;1;2;3;3;3;2;7;1;3;EAI
212,213;DRD16;2;2;2;5;3;4;3;7;2;3;4;3;2;2;6;2;2;3;3;5;4;4;1;1;EAI
213,214;DRD175;2;1;4;5;2;4;9;9;2;8;4;3;2;6;6;2;2;3;3;4;2;7;1;3;EAI
214,215;DRD18;2;1;4;5;2;4;9;a;2;9;4;3;2;6;6;2;2;3;3;4;2;7;1;3;EAI
215,216;DRD183;2;1;4;8;2;4;3;a;2;9;4;3;2;5;4;2;2;3;3;3;2;7;1;3;EAI
216,217;DRD187;2;2;4;5;2;4;3;4;2;4;9;3;2;4;7;2;3;3;3;5;7;6;1;3;EAI
217,218;DRD188;2;2;4;4;4;4;3;6;2;2;6;3;1;2;6;2;1;3;3;5;4;4;1;3;EAI
218,219;DRD189;2;2;4;4;3;4;1;5;2;2;7;3;3;5;5;1;2;3;3;5;2;6;1;2;EAI
219,220;DRD190;2;2;4;5;3;4;3;5;2;3;4;3;1;3;6;2;2;3;3;6;5;5;1;2;EAI
220,221;DRD191;2;2;4;5;3;4;3;5;2;2;7;3;2;5;5;2;2;3;3;4;4;5;1;3;EAI
221,222;DRD194;2;2;4;5;3;4;2;5;2;2;7;3;2;5;5;2;2;3;3;4;4;5;1;3;EAI
222,223;DRD195;2;2;4;5;3;4;2;5;2;2;7;3;2;5;5;2;2;3;3;4;4;5;1;3;EAI
223,224;DRD198;2;2;4;5;4;4;3;6;2;3;6;3;1;1;4;2;2;3;3;4;4;5;1;3;EAI
224,225;DRD200;2;1;4;5;2;4;3;5;2;8;4;3;2;6;6;2;2;3;3;4;2;7;1;2;EAI
225,226;DRD210;2;2;4;5;3;4;3;6;2;3;6;3;1;1;6;2;2;3;3;6;6;5;1;2;EAI
226,227;DRD216;2;2;4;4;3;4;3;5;2;2;6;3;1;4;6;1;2;3;3;5;4;6;1;3;EAI
227,228;DRD219;2;1;4;5;2;4;3;5;2;8;4;3;2;6;6;2;2;3;3;4;2;7;1;2;EAI
228,229;DRD220;2;2;4;5;2;4;3;4;2;2;9;3;2;4;7;2;3;3;3;5;7;6;1;3;EAI
229,230;DRD222;2;1;4;5;2;4;3;5;2;8;4;3;2;6;6;2;2;3;3;4;2;7;1;2;EAI
230,231;DRD224;2;2;2;5;3;4;3;a;2;6;9;3;2;4;6;2;2;3;3;4;5;4;1;1;EAI
231,232;DRD229;2;1;4;5;2;4;3;5;2;8;4;3;2;6;6;2;2;3;3;4;2;7;1;2;EAI
232,233;DRD235;2;2;4;5;4;4;3;6;2;3;6;3;1;1;4;2;2;3;3;4;4;5;1;3;EAI
233,234;DRD241;2;2;2;5;4;4;3;6;2;3;6;3;1;1;4;2;2;3;3;4;4;5;1;3;EAI
234,235;DRD245;2;1;4;5;2;4;3;5;2;8;4;3;2;6;6;2;2;3;3;4;2;7;1;2;EAI
235,236;DRD247;2;1;4;5;2;4;3;5;2;8;4;3;2;6;6;2;2;3;3;4;2;7;1;2;EAI
236,237;DRD253;2;1;4;5;2;4;3;5;2;8;4;3;2;6;6;2;2;3;3;4;2;7;1;2;EAI
237,238;DRD257;2;2;4;4;3;4;3;8;2;3;6;3;1;3;6;2;2;3;2;6;2;6;1;3;EAI
238,239;DRD258;2;1;4;5;2;4;9;9;2;8;4;3;2;6;6;2;2;3;3;4;2;7;1;3;EAI
239,240;DRD259;2;1;4;5;2;4;3;5;2;8;4;3;2;6;6;2;2;3;3;4;2;7;1;2;EAI
240,241;DRD26;2;1;4;5;2;3;3;a;2;9;4;3;2;6;6;2;2;3;3;4;2;7;1;3;EAI
241,242;DRD273;2;1;4;5;2;4;3;5;2;8;4;3;2;6;6;2;2;3;3;4;2;7;1;2;EAI
242,243;DRD274;2;1;4;5;2;4;3;5;2;8;4;3;2;6;6;2;2;3;3;4;2;7;1;2;EAI
243,244;DRD275;2;1;4;5;2;4;3;5;2;8;4;3;2;6;6;2;2;3;3;4;2;7;1;2;EAI
244,245;DRD278;2;1;4;5;2;4;3;5;2;8;4;3;2;6;6;2;2;3;3;4;2;7;1;2;EAI
245,246;DRD279;2;1;4;5;2;4;3;5;2;8;4;3;2;6;6;2;2;3;3;4;2;7;1;2;EAI
246,247;DRD290;2;2;4;5;3;4;3;6;2;3;6;3;1;1;4;2;2;3;3;4;4;5;1;3;EAI
247,248;DRD291;2;1;4;5;2;4;3;5;2;8;4;3;2;6;6;2;2;3;3;4;2;7;1;2;EAI
248,249;DRD293;2;1;4;5;2;4;3;5;2;8;4;3;2;6;6;2;2;3;3;4;2;7;1;2;EAI
249,250;DRD300;2;1;4;5;2;4;3;5;2;8;4;3;2;6;6;2;2;3;3;4;2;7;1;2;EAI
250,251;DRD306;2;2;4;5;3;4;3;6;2;3;6;3;1;1;4;2;2;3;3;6;4;5;1;3;EAI
251,252;DRD307;2;3;4;5;2;4;3;6;2;5;6;3;1;4;6;2;2;3;3;5;2;6;1;3;EAI
252,253;DRD312;2;1;4;5;2;4;3;5;2;8;4;3;2;6;6;2;2;3;3;4;2;7;1;2;EAI
253,254;DRD324;2;2;4;5;4;4;3;6;2;3;6;3;1;1;6;2;2;3;3;4;4;5;1;2;EAI
254,255;DRD330;2;1;4;5;2;4;3;5;2;8;4;3;2;6;6;2;2;3;3;4;2;7;1;2;EAI
255,256;DRD34;2;2;4;5;3;4;2;5;1;2;7;3;3;5;1;2;2;3;3;5;6;6;1;3;EAI
256,257;DRD342;2;2;4;5;3;4;3;6;2;3;6;3;1;1;4;2;2;3;3;6;6;5;1;3;EAI
257,258;DRD345;2;2;4;5;4;4;3;6;2;2;6;3;1;1;7;2;2;3;3;4;4;6;1;3;EAI
258,259;DRD346;2;2;2;5;3;4;3;9;2;8;7;3;2;2;7;2;2;3;3;6;2;4;1;1;EAI
259,260;DRD347;2;1;4;5;2;4;3;5;2;8;4;3;2;6;6;2;2;3;3;4;2;7;1;2;EAI
260,261;DRD356;2;3;4;5;2;4;3;6;2;5;6;3;1;4;6;2;2;3;3;5;2;6;1;3;EAI
261,262;DRD36;2;1;4;5;2;4;9;a;2;9;4;3;2;6;6;2;2;3;3;4;2;7;1;3;EAI
262,263;DRD360;2;3;2;5;3;5;3;8;2;2;9;3;2;4;6;2;2;3;3;5;5;4;1;1;EAI
263,264;DRD362;2;3;4;5;3;4;3;6;2;5;6;3;2;4;6;2;2;3;3;5;2;6;1;3;EAI
264,265;DRD374;2;1;4;5;2;4;3;5;2;8;4;3;2;6;6;2;2;3;3;4;2;7;1;2;EAI
265,266;DRD375;2;2;4;5;4;4;3;6;2;3;6;3;2;1;6;2;2;3;3;4;3;6;5;3;EAI
266,267;DRD387;2;1;4;5;2;4;3;5;2;8;4;3;2;6;6;2;2;3;3;4;2;7;1;2;EAI
267,268;DRD388;2;2;4;5;4;4;3;6;2;3;6;3;1;1;6;2;2;3;3;4;6;5;1;3;EAI
268,269;DRD390;2;2;4;5;4;4;3;6;2;3;6;3;1;1;6;2;2;3;3;4;4;5;1;3;EAI
269,270;DRD392;2;2;4;6;4;4;3;6;2;3;6;3;1;1;6;2;2;3;3;4;1;6;1;3;EAI
270,271;DRD395;2;2;4;7;2;4;2;4;2;4;5;3;2;6;6;2;2;3;3;5;2;7;1;2;EAI
271,272;DRD398;2;1;4;5;2;4;3;a;2;9;4;3;2;5;6;2;2;3;3;3;2;7;2;2;EAI
272,273;DRD4;2;2;4;3;3;4;2;6;2;6;9;3;2;5;5;2;2;1;3;5;4;1;1;3;EAI
273,274;DRD406;2;2;4;5;3;4;3;4;2;2;7;3;2;5;5;2;2;3;3;4;4;5;1;3;EAI
274,275;DRD419;2;2;4;4;2;5;3;6;2;9;8;3;2;4;6;2;2;1;3;4;4;5;1;3;EAI
275,276;DRD420;2;2;4;5;3;4;3;5;2;2;7;3;2;5;5;2;2;3;3;4;4;5;1;3;EAI
276,277;DRD424;2;2;4;5;4;4;3;6;2;3;6;3;1;1;4;2;2;3;3;6;4;5;1;3;EAI
277,278;DRD43;2;1;4;5;2;3;3;9;2;6;4;3;2;6;6;2;2;3;3;4;2;7;1;2;EAI
278,279;DRD433;2;1;4;5;2;4;9;a;2;9;4;3;2;6;6;2;2;3;3;4;2;7;1;3;EAI
279,280;DRD436;2;2;4;6;4;4;3;6;2;3;6;3;1;1;6;2;2;3;3;4;4;6;1;3;EAI
280,281;DRD439;2;2;4;5;3;4;2;5;2;2;7;3;2;5;5;2;2;3;3;4;4;5;1;3;EAI
281,282;DRD443;2;2;4;5;3;4;3;5;2;2;7;3;2;5;5;2;2;3;3;4;4;5;1;3;EAI
282,283;DRD448;2;2;4;4;3;4;3;5;2;2;7;3;2;5;5;2;2;3;3;4;4;5;1;3;EAI
283,284;DRD454;2;2;4;4;3;4;2;5;2;2;7;3;2;5;5;2;2;3;3;4;4;5;1;3;EAI
284,285;DRD460;2;2;4;5;3;4;3;5;2;2;7;3;2;5;5;2;2;3;3;4;4;5;1;3;EAI
285,286;DRD463;2;2;4;4;2;4;3;5;2;2;9;3;2;1;6;2;2;1;3;5;4;6;1;3;EAI
286,287;DRD467;2;2;4;5;3;4;3;6;2;3;6;3;1;1;4;2;2;3;3;4;6;5;1;3;EAI
287,288;DRD469;2;2;4;6;4;4;3;6;2;3;6;3;1;1;6;2;2;3;3;4;4;6;1;3;EAI
288,289;DRD47;2;2;4;5;3;4;3;5;2;3;4;3;1;4;6;2;2;3;3;6;4;5;1;2;EAI
289,290;DRD474;2;2;4;5;4;4;3;4;2;2;5;3;1;1;6;2;2;3;3;6;4;6;1;3;EAI
290,291;DRD485;2;2;4;5;4;4;3;6;2;3;6;3;1;1;6;2;2;3;3;6;4;5;1;2;EAI
291,292;DRD516;2;2;4;5;4;4;3;6;2;3;6;3;1;1;4;2;2;3;3;4;4;5;1;2;EAI
292,293;DRD52;2;2;4;3;3;4;3;6;2;6;9;3;2;5;5;2;2;1;3;5;4;1;1;3;EAI
293,294;DRD548;2;2;4;5;3;4;2;5;2;2;7;3;2;5;5;2;2;3;3;4;4;5;1;3;EAI
294,295;DRD549;2;2;4;5;3;4;3;5;2;2;7;3;2;5;5;2;2;3;3;4;4;5;1;3;EAI
295,296;DRD550;2;2;4;5;3;4;3;6;2;3;6;3;1;1;6;2;2;3;3;4;4;5;1;3;EAI
296,297;DRD553;2;2;4;5;4;4;3;6;2;3;6;3;1;1;4;2;2;3;3;4;4;5;1;3;EAI
297,298;DRD562;2;1;4;5;2;3;3;a;2;9;4;3;2;6;6;2;3;3;3;4;2;7;1;3;EAI
298,299;DRD57;2;2;2;5;3;4;3;6;2;3;9;3;2;4;6;2;2;3;3;5;4;3;2;1;EAI
299,300;DRD579;2;2;4;5;3;4;3;5;2;6;9;3;1;2;4;2;2;3;3;5;6;4;1;3;EAI
300,301;DRD584;2;2;4;5;3;4;3;6;2;3;6;3;2;1;4;2;2;3;3;4;4;5;1;3;EAI
301,302;DRD601;2;2;4;5;4;4;3;6;2;3;5;3;1;1;4;2;2;3;3;4;4;5;1;3;EAI
302,303;DRD603;2;2;2;5;3;4;3;9;2;5;8;3;2;4;7;2;2;3;3;5;3;4;2;1;EAI
303,304;DRD606;2;2;4;5;4;4;2;6;2;3;6;3;1;1;4;2;2;3;3;4;4;5;1;3;EAI
304,305;DRD626;2;2;4;5;4;4;2;6;2;3;5;3;1;1;4;2;2;3;3;4;4;5;1;3;EAI
305,306;DRD633;2;2;4;5;3;4;3;5;2;2;7;3;2;5;5;2;2;3;3;4;4;5;1;3;EAI
306,307;DRD657;2;2;4;5;4;4;2;4;2;2;6;3;1;1;6;2;2;3;3;4;4;7;1;3;EAI
307,308;DRD66;2;1;4;5;4;4;3;6;1;b;7;3;2;6;6;2;2;3;3;5;4;6;1;1;EAI
308,309;DRD-660;2;2;4;5;4;4;3;6;2;3;6;3;1;1;4;2;2;3;3;6;6;5;1;3;EAI
309,310;DRD662;2;2;4;5;3;4;3;5;2;2;7;3;2;5;5;2;2;3;3;4;4;5;1;3;EAI
310,311;DRD668;2;2;4;5;3;4;3;6;2;3;6;3;1;1;6;2;2;3;3;6;4;6;1;2;EAI
311,312;DRD669;2;2;4;5;4;3;3;6;2;3;6;3;1;1;6;2;2;3;3;4;4;5;1;3;EAI
312,313;DRD69;2;2;4;5;3;4;3;5;2;2;6;3;1;4;7;2;2;3;3;6;4;6;1;2;EAI
313,314;DRD697;2;2;4;5;3;4;3;5;2;2;7;3;2;5;5;2;2;3;3;4;4;5;1;3;EAI
314,315;DRD702;2;2;2;3;3;4;3;3;2;2;9;3;2;4;6;2;2;3;3;5;4;4;1;1;EAI
315,316;DRD71;2;2;4;4;4;4;3;6;2;3;6;3;1;1;6;2;2;3;3;4;4;4;1;3;EAI
316,317;DRD757;2;2;2;5;2;4;3;6;2;3;9;3;2;4;6;2;2;3;3;5;4;3;2;1;EAI
317,318;DRD79;2;2;2;5;3;4;3;6;2;3;9;3;2;4;6;2;2;3;3;5;4;3;1;1;EAI
318,319;DRD8;2;2;4;5;3;4;3;6;2;3;6;3;1;1;6;2;2;3;3;4;4;5;1;3;EAI
319,320;DRD82;2;2;4;4;3;4;3;5;2;2;7;3;2;5;5;2;2;3;3;4;4;5;1;3;EAI
320,321;DRD92;2;2;4;3;3;4;3;6;2;6;8;3;2;5;5;2;2;1;4;5;4;6;1;3;EAI
321,322;DRD102;2;2;3;2;5;2;3;4;2;3;3;4;4;2;5;1;4;3;3;3;3;6;1;3;Ghana
322,323;DRD110;2;2;3;2;5;3;3;4;2;3;3;4;4;2;5;1;4;3;3;3;3;6;1;3;Ghana
323,324;DRD112;2;2;3;2;5;3;3;4;2;3;3;4;4;2;5;1;4;3;3;3;3;6;1;3;Ghana
324,325;DRD115;2;2;3;2;5;3;3;4;2;4;3;4;4;2;5;1;4;3;3;3;3;6;1;3;Ghana
325,326;DRD119;2;2;3;2;5;3;3;4;2;3;3;4;4;2;5;1;4;3;3;3;3;6;1;3;Ghana
326,327;DRD137;2;2;3;2;5;2;3;4;2;4;3;4;4;2;4;1;4;3;3;3;3;6;2;3;Ghana
327,328;DRD144;2;2;3;2;5;3;3;4;3;3;3;4;4;3;5;1;4;3;3;3;3;6;1;3;Ghana
328,329;DRD147;2;2;5;2;5;3;3;4;2;4;3;4;4;2;5;1;4;3;3;3;3;6;1;3;Ghana
329,330;DRD153;2;2;3;2;5;3;3;4;2;3;3;4;4;2;5;1;4;3;3;3;3;6;1;3;Ghana
330,331;DRD155;2;2;3;2;5;3;3;4;2;3;3;4;4;2;5;1;4;3;3;3;3;6;1;3;Ghana
331,332;DRD170;2;2;3;2;5;3;3;3;2;4;3;4;4;2;5;1;4;3;3;3;3;6;1;3;Ghana
332,333;DRD203;2;2;3;2;5;3;3;4;2;3;2;4;4;1;5;1;4;3;3;3;3;6;1;3;Ghana
333,334;DRD261;2;2;3;2;5;3;3;4;2;3;3;4;4;2;5;1;4;3;3;3;4;5;2;3;Ghana
334,335;DRD262;2;2;3;2;5;3;3;4;2;4;3;4;4;2;5;1;4;3;3;3;3;6;1;3;Ghana
335,336;DRD264;2;2;2;2;5;3;3;4;2;3;3;4;4;2;5;1;3;3;3;3;3;6;1;3;Ghana
336,337;DRD265;2;2;3;2;5;3;3;4;2;4;3;4;4;2;5;1;4;3;3;3;3;6;1;3;Ghana
337,338;DRD266;2;2;3;2;5;3;3;3;2;4;3;4;4;2;5;1;4;3;3;3;3;6;1;3;Ghana
338,339;DRD27;2;2;3;2;5;3;3;3;2;4;3;4;4;2;5;1;4;3;3;3;4;6;1;3;Ghana
339,340;DRD271;2;2;3;2;5;3;3;4;2;3;3;4;4;2;5;1;4;3;3;3;3;6;1;3;Ghana
340,341;DRD280;2;2;3;2;5;3;2;4;2;3;3;4;4;2;5;1;4;3;3;3;3;5;1;3;Ghana
341,342;DRD282;2;2;3;2;5;3;3;4;2;3;3;4;4;2;5;1;4;3;3;3;3;5;1;3;Ghana
342,343;DRD287;2;2;3;2;5;3;3;4;2;4;3;4;4;2;5;2;4;3;3;3;3;6;1;3;Ghana
343,344;DRD292;2;2;3;2;5;3;3;3;2;4;3;4;4;2;5;1;4;3;3;3;3;6;1;3;Ghana
344,345;DRD294;2;2;3;2;5;3;3;4;2;4;3;4;4;2;5;1;4;3;3;3;3;6;1;3;Ghana
345,346;DRD295;2;2;3;2;5;3;3;4;2;3;2;4;4;2;5;1;4;3;3;3;4;6;1;3;Ghana
346,347;DRD31;3;2;3;2;5;3;3;4;2;3;3;4;4;2;5;1;4;3;3;3;3;6;2;3;Ghana
347,348;DRD311;2;2;3;2;5;2;3;3;2;3;3;4;3;2;5;1;4;3;3;3;3;6;1;3;Ghana
348,349;DRD32;2;2;3;2;5;3;3;4;2;4;3;4;4;2;5;1;4;3;3;2;3;5;1;3;Ghana
349,350;DRD320;2;2;3;2;5;3;3;3;2;4;3;4;4;2;5;1;4;3;3;3;3;6;1;3;Ghana
350,351;DRD327;2;2;3;2;5;3;3;4;2;3;3;4;4;2;5;1;4;3;3;4;3;6;1;3;Ghana
351,352;DRD329;2;2;3;2;5;3;2;4;2;4;3;4;4;2;5;1;4;3;3;3;3;6;2;3;Ghana
352,353;DRD332;2;2;3;2;5;3;3;4;2;4;3;4;4;2;5;1;4;3;3;3;4;6;1;3;Ghana
353,354;DRD336;2;2;3;2;5;3;2;4;2;3;3;4;3;2;5;1;4;3;3;3;3;6;1;3;Ghana
354,355;DRD337;2;2;3;2;5;3;3;3;2;4;3;4;4;2;5;1;4;3;3;3;3;6;1;3;Ghana
355,356;DRD349;2;2;3;2;5;3;2;4;2;3;3;4;4;2;5;1;4;3;3;3;3;6;2;3;Ghana
356,357;DRD357;2;2;3;2;5;3;2;4;2;3;3;4;4;1;5;1;4;3;3;3;3;5;1;3;Ghana
357,358;DRD369;2;2;3;2;3;3;3;4;2;3;3;4;4;2;5;1;4;3;3;3;3;6;1;3;Ghana
358,359;DRD376;2;2;3;2;5;3;3;4;2;3;3;4;4;2;5;1;4;3;3;3;3;6;1;3;Ghana
