ID,VNTR_0580,VNTR_2996,VNTR_0802,VNTR_0960,VNTR_1644,VNTR_3192,VNTR_0424,VNTR_0577,VNTR_2165,VNTR_2401,VNTR_3690,VNTR_4156,VNTR_2163b,VNTR_1955,VNTR_4052,VNTR_0154,VNTR_2531,VNTR_4348,VNTR_2059,VNTR_2687,VNTR_3007,VNTR_2347,VNTR_2461,VNTR_3171,spoligo1,spoligo2,spoligo3,spoligo4,spoligo5,spoligo6,spoligo7,spoligo8,spoligo9,spoligo10,spoligo11,spoligo12,spoligo13,spoligo14,spoligo15,spoligo16,spoligo17,spoligo18,spoligo19,spoligo20,spoligo21,spoligo22,spoligo23,spoligo24,spoligo25,spoligo26,spoligo27,spoligo28,spoligo29,spoligo30,spoligo31,spoligo32,spoligo33,spoligo34,spoligo35,spoligo36,spoligo37,spoligo38,spoligo39,spoligo40,spoligo41,spoligo42,spoligo43
511,2,5,3,6,4,5,3,2,4,2,3,4,2,3,7,2,5,3,2,1,3,4,2,3,1,1,1,0,0,0,0,1,1,1,1,1,1,1,1,1,1,1,1,1,1,1,0,0,0,0,0,0,0,0,0,0,0,0,1,1,1,0,1,1,1,1,1
51,2,3,3,5,3,3,4,3,3,4,3,3,2,2,2,2,5,2,2,1,2,4,2,3,1,1,1,1,1,1,1,1,1,1,1,1,1,1,1,1,1,0,1,1,1,1,1,1,0,0,0,0,0,0,0,0,0,0,0,0,0,0,0,0,0,0,0
1171,2,5,3,3,3,4,2,5,4,2,3,2,2,3,8,2,5,2,2,1,3,4,2,3,1,1,1,1,1,1,1,1,1,1,1,1,1,1,1,1,1,1,1,1,1,1,1,1,1,1,1,1,1,1,1,1,0,0,0,0,1,1,1,0,1,1,1
2282,2,5,4,4,3,3,4,3,3,4,3,3,3,3,5,2,5,2,2,1,3,4,2,3,1,1,1,0,0,0,0,0,0,0,0,0,1,1,1,1,1,0,1,1,1,1,1,1,1,1,1,1,1,1,1,1,0,0,0,0,1,1,1,1,1,1,1
557,2,5,4,5,3,3,2,3,2,4,3,3,6,3,4,2,5,2,2,1,3,4,2,3,0,0,0,0,0,0,0,0,0,0,0,0,0,0,0,0,0,0,0,0,0,0,0,0,1,0,0,0,0,0,0,1,0,0,0,0,1,1,1,1,1,1,1
764,3,5,2,3,1,4,1,4,3,2,4,2,2,2,4,2,5,2,2,1,3,4,2,3,1,1,1,1,1,1,1,1,1,1,1,1,1,1,1,1,1,1,1,1,1,1,1,1,1,1,1,1,1,1,1,1,0,0,0,0,1,1,1,1,1,1,1
1200,2,6,1,5,2,3,1,4,2,1,2,2,3,3,8,1,6,1,2,1,3,4,2,3,1,1,0,1,1,1,1,1,1,1,1,1,1,1,1,1,1,1,1,1,0,0,0,0,1,1,1,1,1,1,1,1,0,0,0,0,1,1,1,1,1,1,1
192,2,4,3,5,3,3,2,3,3,4,3,2,3,2,6,2,3,2,1,1,3,2,2,3,1,1,1,1,1,1,1,1,1,1,1,1,1,1,1,1,1,1,1,1,1,1,1,1,1,1,1,1,1,1,0,1,0,0,0,0,1,1,1,1,1,1,1
2259,2,5,3,5,3,3,3,3,3,4,3,3,6,3,7,2,5,2,2,1,3,4,2,3,1,1,1,1,1,1,1,1,1,1,1,1,1,1,1,1,1,1,1,1,1,1,1,1,1,1,1,1,1,1,0,1,0,0,0,0,1,1,1,1,1,1,1
1991,2,5,3,5,2,3,2,3,3,4,3,3,5,3,4,2,5,2,2,1,3,4,2,3,1,1,1,1,1,1,1,1,1,1,1,1,1,1,1,1,1,1,1,0,0,0,0,0,1,1,1,1,1,1,0,1,0,0,0,0,1,1,1,1,1,1,1
2990,2,5,1,4,1,3,4,4,2,1,2,2,4,3,4,2,6,2,2,1,2,4,1,5,1,1,0,0,0,0,0,0,1,1,1,1,1,1,1,1,1,1,1,1,0,0,0,0,1,1,0,0,0,0,1,1,0,0,0,0,1,1,1,1,1,1,1
2383,0,4,3,3,1,3,2,4,3,2,5,2,4,2,4,2,5,2,2,1,3,4,2,3,1,1,1,1,1,1,1,1,1,1,1,1,1,1,1,1,1,1,1,1,1,1,1,1,0,0,0,0,0,0,0,0,0,0,0,0,1,1,1,1,1,1,1
439,2,7,1,3,3,5,3,4,4,4,3,2,5,5,8,2,5,3,2,1,1,4,2,3,0,0,0,0,0,0,0,0,0,0,0,0,0,0,0,0,0,0,0,0,0,0,0,0,0,0,0,0,0,0,0,0,0,0,1,1,1,1,1,1,1,1,1
70,2,5,2,5,3,3,2,3,3,4,3,2,5,2,6,2,3,2,1,1,3,2,3,3,1,1,1,1,1,1,1,1,1,1,1,1,1,1,0,0,0,1,0,0,1,1,1,1,1,1,1,1,1,1,0,1,0,0,0,0,1,1,1,1,1,1,1
2031,2,4,1,4,7,2,3,8,4,4,3,3,?,2,2,2,4,2,2,2,4,3,2,1,1,1,1,1,1,1,1,0,0,0,0,0,1,1,1,1,1,1,1,1,1,1,1,1,0,0,0,0,0,0,0,0,0,0,0,1,1,0,0,1,1,1,1
596,2,4,4,3,3,3,3,4,3,2,5,2,3,2,7,2,5,2,2,1,3,4,2,3,1,1,1,1,1,1,1,1,1,1,1,1,1,1,1,1,1,1,1,1,1,1,1,1,1,1,1,1,1,1,1,1,0,0,0,0,1,1,1,1,1,1,1
2972,2,5,3,3,3,4,3,5,4,2,3,2,2,3,8,2,5,2,2,1,3,4,2,3,1,1,1,1,1,1,1,1,1,1,1,1,1,1,1,1,1,1,1,1,1,1,1,1,1,1,1,1,1,1,1,1,0,0,0,0,1,1,1,0,1,1,1
1503,2,5,4,5,1,3,2,3,3,4,3,3,5,3,7,2,3,2,2,1,3,2,2,2,0,0,0,0,0,0,0,0,0,0,0,0,0,0,0,0,0,0,0,0,0,0,0,0,1,1,1,0,1,1,0,1,0,0,0,0,1,1,1,1,1,1,1
1315,2,4,1,4,4,2,1,4,4,4,3,3,2,2,2,2,4,2,2,2,3,3,2,3,1,1,1,1,1,1,0,0,0,0,0,0,0,0,0,0,1,1,1,1,0,0,0,0,1,1,0,0,1,1,1,1,1,1,1,1,0,0,0,1,1,1,1
948,5,2,3,4,3,6,2,2,6,1,4,1,3,6,6,2,6,2,2,2,3,4,4,3,1,0,0,1,1,1,1,1,1,1,1,1,1,1,1,1,1,1,0,1,0,1,1,1,1,1,1,1,0,0,0,0,1,0,1,1,1,1,1,1,1,1,1
134,2,5,2,5,1,3,2,3,3,4,3,2,5,2,6,2,3,2,1,1,3,2,2,3,1,1,1,1,1,1,1,1,1,1,1,1,1,1,1,1,1,1,1,1,1,1,1,1,1,1,1,1,1,1,0,1,0,0,0,0,1,1,1,1,1,1,1
1979,3,5,2,2,3,3,0,5,5,4,2,1,4,1,4,2,4,2,2,2,2,3,4,3,1,1,0,1,1,1,1,1,0,1,1,1,1,1,1,0,1,1,1,1,1,1,1,1,1,1,1,1,1,1,1,1,1,1,1,1,1,1,0,0,0,0,0
1461,5,2,3,4,3,3,2,2,9,2,3,1,3,4,8,2,6,1,2,2,3,3,4,3,1,1,1,1,1,1,1,1,1,1,1,1,1,1,1,1,1,1,1,1,1,1,1,1,1,1,1,1,0,0,0,0,1,0,1,1,1,1,0,0,0,0,0
1754,3,5,3,5,3,3,2,3,3,4,3,3,5,3,6,2,5,2,2,1,3,4,2,3,1,1,1,1,1,1,1,1,0,1,1,1,1,1,1,1,1,1,1,1,1,1,1,1,1,0,0,1,1,1,0,1,0,0,0,0,1,1,1,1,1,1,1
2144,2,5,4,3,1,3,2,4,3,2,6,2,4,2,5,2,5,2,2,1,3,4,2,3,1,1,1,1,1,1,1,1,1,1,1,1,1,1,1,1,1,1,1,1,1,1,1,1,1,1,1,1,1,1,1,1,0,0,0,0,1,1,1,1,1,1,1
32,2,7,1,3,3,5,4,4,4,4,3,2,5,5,8,2,5,3,2,1,1,4,2,3,0,0,0,0,0,0,0,0,0,0,0,0,0,0,0,0,0,0,0,0,0,0,0,0,0,0,0,0,0,0,0,0,0,0,1,1,1,1,1,1,1,1,1
2325,2,6,3,6,2,3,2,3,3,4,3,2,3,2,7,2,3,2,1,1,3,2,2,3,1,1,1,1,1,1,1,1,1,1,1,1,1,1,1,1,1,1,1,1,1,1,1,1,1,0,0,0,0,0,0,1,0,0,0,0,1,1,1,1,1,1,1
1578,2,6,3,5,3,3,2,3,3,3,3,3,4,2,7,2,3,2,2,1,3,2,2,3,1,1,1,1,1,1,1,1,1,1,1,1,1,1,1,1,1,1,1,1,1,1,1,1,1,0,0,0,0,0,0,1,0,0,0,0,1,1,1,0,1,1,1
756,2,5,1,3,2,4,2,2,2,2,3,2,2,2,6,2,5,2,2,1,3,4,2,3,1,1,1,1,1,1,1,1,1,1,1,1,1,1,1,1,1,1,1,1,1,1,1,1,1,1,0,0,1,1,1,1,0,0,0,0,1,1,1,0,1,1,1
3069,5,2,2,4,3,4,1,4,4,2,2,1,9,7,7,2,6,3,2,2,3,3,6,3,1,1,0,1,1,1,1,1,1,1,1,1,1,1,1,1,1,1,1,0,0,1,1,1,1,1,1,1,0,0,0,0,1,0,1,1,1,1,0,0,0,0,0
3016,2,7,3,3,3,5,4,5,4,4,3,4,6,4,9,2,5,3,2,1,3,4,2,3,0,0,0,0,0,0,0,0,0,0,0,0,0,0,0,0,0,0,0,0,0,0,0,0,0,0,0,0,0,0,0,0,0,0,1,1,1,1,1,1,1,1,1
2297,2,5,4,4,3,2,3,4,2,1,2,2,2,3,6,2,5,2,2,1,3,4,2,3,1,1,1,1,1,1,1,1,1,1,1,1,1,1,1,1,1,1,1,1,0,0,0,0,0,0,0,0,0,0,0,0,0,0,0,0,1,1,1,0,0,1,1
3252,2,5,1,3,3,3,2,5,3,2,6,2,5,2,5,1,6,2,2,1,3,4,2,3,1,1,1,1,1,1,1,0,0,0,1,1,1,1,1,1,1,1,1,1,1,1,1,1,1,1,1,1,1,1,1,1,0,0,0,0,1,1,1,0,1,1,1
2531,2,5,6,4,2,3,3,4,2,2,4,1,3,3,8,2,6,2,2,1,3,4,2,3,1,1,1,1,1,1,1,1,1,1,1,1,1,1,1,1,1,1,1,1,0,0,0,0,1,1,0,1,1,1,1,1,0,0,0,0,1,1,1,0,1,1,1
867,2,5,3,4,2,3,4,2,2,2,1,2,2,3,7,2,6,2,2,1,3,4,2,1,1,1,1,1,1,1,1,1,0,0,0,1,1,1,1,1,1,1,1,1,0,0,0,0,1,1,1,1,1,1,1,1,0,0,0,0,1,1,1,1,1,1,1
3205,2,5,3,5,3,3,3,3,3,4,3,3,?,3,7,2,6,2,2,1,3,4,2,3,1,1,1,1,1,1,1,1,1,1,1,1,1,1,1,1,1,1,1,1,1,1,1,1,1,1,1,1,1,1,0,1,0,0,0,0,1,1,1,1,1,1,1
1842,2,4,1,3,2,3,4,4,2,1,2,2,3,3,8,2,6,2,2,1,3,4,1,5,1,1,1,1,1,1,1,1,1,0,1,1,1,1,1,1,1,1,1,1,0,0,0,0,1,1,1,1,1,1,1,1,0,0,0,0,1,1,1,1,1,1,1
874,2,1,4,7,4,4,4,2,4,2,2,4,2,3,5,2,5,3,2,1,3,4,2,3,1,1,1,0,0,0,0,1,1,0,1,1,1,1,1,1,1,1,1,0,0,0,0,0,0,0,0,0,0,0,0,0,0,0,0,1,1,1,1,1,1,1,1
1587,2,5,4,3,1,3,2,4,2,2,4,2,2,2,5,2,5,2,2,1,3,4,2,2,1,1,1,1,1,1,1,1,1,1,1,1,1,1,1,1,1,1,1,1,1,1,1,1,1,1,1,1,1,1,1,1,0,0,0,0,1,1,1,1,1,1,1
3240,2,5,1,3,2,3,1,4,2,1,2,2,2,3,4,2,6,2,2,1,3,5,2,3,1,1,0,1,1,1,1,1,1,1,1,1,1,1,1,1,1,1,1,1,0,0,0,0,1,1,1,1,1,1,1,1,0,0,0,0,1,1,1,1,1,1,1
2241,5,2,4,4,3,4,2,4,9,2,4,1,5,6,6,2,7,3,1,2,3,3,9,3,1,1,1,1,1,1,1,1,1,1,1,1,1,1,1,1,0,0,0,0,0,0,0,0,1,1,1,1,0,0,0,0,1,0,1,1,1,1,1,1,1,1,1
3286,2,5,3,5,3,3,2,3,3,4,3,3,6,3,6,2,3,2,2,1,3,2,2,3,1,1,1,1,1,1,1,1,1,1,1,1,1,1,1,1,1,1,1,1,1,1,1,1,1,1,1,1,1,1,0,1,0,0,0,0,1,1,1,1,1,1,1
1812,2,6,4,4,3,2,1,4,2,1,2,2,2,3,7,1,6,2,2,1,3,4,2,3,1,1,1,1,1,1,1,1,1,1,1,1,1,1,1,1,1,1,1,1,0,0,0,0,1,1,0,0,0,0,0,1,0,0,0,0,1,1,1,1,1,1,1
2493,2,7,3,10,4,5,4,2,4,2,3,4,2,4,5,2,6,3,2,2,3,3,1,3,1,1,1,0,0,0,0,1,1,1,1,1,1,1,1,1,1,1,1,1,1,1,0,0,0,0,0,0,0,0,0,0,0,0,1,1,1,1,1,1,1,1,1
3326,2,7,2,6,4,5,7,2,4,2,3,4,2,4,10,2,5,3,2,1,3,4,2,3,0,0,0,0,0,0,0,0,0,0,0,0,0,0,0,0,0,0,0,0,0,0,0,0,0,0,0,0,0,0,0,0,0,0,0,0,0,0,0,0,0,0,0
1497,4,2,3,4,3,5,2,4,10,2,4,1,11,6,6,2,11,3,2,2,1,3,4,3,1,1,1,1,1,1,1,1,1,1,1,1,1,1,1,1,1,1,1,1,1,1,0,0,0,0,1,1,0,0,0,0,1,0,1,1,0,1,1,1,1,1,1
170,2,5,2,4,3,3,1,6,4,2,4,2,2,3,1,2,3,2,2,1,3,4,2,2,0,0,0,0,1,1,1,1,1,1,1,0,0,1,1,1,1,1,1,1,1,1,1,1,1,1,1,1,1,1,1,1,0,0,0,0,1,1,1,1,1,1,1
289,2,5,3,3,3,3,3,4,3,2,3,2,3,2,6,2,5,2,2,1,3,4,2,3,1,1,1,1,1,1,1,1,1,1,1,1,1,1,1,1,1,1,1,1,1,1,1,1,1,1,1,1,1,1,1,1,0,0,0,0,1,1,1,1,1,1,1
1132,2,5,3,6,5,5,3,2,4,2,3,4,2,4,7,2,5,3,2,1,3,6,2,3,1,1,1,0,0,0,0,1,1,1,1,1,1,1,1,1,1,1,1,1,1,1,0,0,0,0,0,0,0,0,0,0,0,0,1,1,0,0,1,1,1,1,1
2605,2,5,4,3,1,3,2,4,3,2,5,2,4,2,5,2,5,1,2,1,3,4,2,3,1,1,1,1,1,0,1,1,1,1,1,1,1,1,1,1,1,1,1,1,1,1,1,1,1,1,1,1,1,1,1,1,0,0,0,0,1,1,1,1,1,1,1
